%YAML 1.1
%TAG !u! tag:unity3d.com,2011:
--- !u!1 &491670725252598765
GameObject:
  m_ObjectHideFlags: 0
  m_CorrespondingSourceObject: {fileID: 0}
  m_PrefabInstance: {fileID: 0}
  m_PrefabAsset: {fileID: 0}
  serializedVersion: 6
  m_Component:
  - component: {fileID: 1885571637023894311}
  - component: {fileID: 8611201056070623234}
  m_Layer: 5
  m_Name: GhostBar
  m_TagString: Untagged
  m_Icon: {fileID: 0}
  m_NavMeshLayer: 0
  m_StaticEditorFlags: 0
  m_IsActive: 1
--- !u!224 &1885571637023894311
RectTransform:
  m_ObjectHideFlags: 0
  m_CorrespondingSourceObject: {fileID: 0}
  m_PrefabInstance: {fileID: 0}
  m_PrefabAsset: {fileID: 0}
  m_GameObject: {fileID: 491670725252598765}
  m_LocalRotation: {x: -0, y: -0, z: -0, w: 1}
  m_LocalPosition: {x: 0, y: 0, z: 0}
  m_LocalScale: {x: 1, y: 1, z: 1}
  m_ConstrainProportionsScale: 0
  m_Children:
  - {fileID: 3724837388855033690}
  m_Father: {fileID: 0}
  m_LocalEulerAnglesHint: {x: 0, y: 0, z: 0}
  m_AnchorMin: {x: 0.5, y: 0.5}
  m_AnchorMax: {x: 0.5, y: 0.5}
  m_AnchoredPosition: {x: 0, y: 0}
  m_SizeDelta: {x: 300, y: 30}
  m_Pivot: {x: 0.5, y: 0.5}
--- !u!114 &8611201056070623234
MonoBehaviour:
  m_ObjectHideFlags: 0
  m_CorrespondingSourceObject: {fileID: 0}
  m_PrefabInstance: {fileID: 0}
  m_PrefabAsset: {fileID: 0}
  m_GameObject: {fileID: 491670725252598765}
  m_Enabled: 1
  m_EditorHideFlags: 0
  m_Script: {fileID: 11500000, guid: 09da2f98b89e85d4daf792708bdc0f06, type: 3}
  m_Name: 
  m_EditorClassIdentifier: 
  simpleBar:
    _renderType: 0
    _isAnimated: 1
    _srBackground: {fileID: 0}
    _srPrimaryBar: {fileID: 0}
    _srGhostBar: {fileID: 0}
    _uiBackground: {fileID: 8615194741368719036}
    _uiPrimaryBar: {fileID: 6770988671081973103}
    _uiGhostBar: {fileID: 5521805096293915113}
    _adaptiveColor: 0
    _barPrimaryColor: {r: 1, g: 0.2, b: 0.20784314, a: 1}
    _barAdaptiveColor: {r: 1, g: 0, b: 0, a: 1}
    _useGhostBar: 1
    _dualGhostBars: 0
    _ghostBarDamageColor: {r: 0, g: 1, b: 0.6, a: 1}
    _ghostBarHealColor: {r: 1, g: 1, b: 1, a: 1}
    _damageAnim: 0
    _damageAnimDuration: 0.1
    _damageAnimDelay: 0
    _damageFlashColor: {r: 1, g: 1, b: 1, a: 1}
    _damageAnimStrength: 0.5
    _healAnim: 0
    _healAnimDuration: 0.1
    _healAnimDelay: 0
    _healFlashColor: {r: 1, g: 1, b: 1, a: 1}
    _healAnimStrength: 0.5
  editorMode: 1
  animations:
  - animationType: 0
    renderType: 0
    targetImage: {fileID: 6770988671081973103}
    targetSprite: {fileID: 0}
    notBar: 0
    commands:
    - execution: 0
      effect: 2
      duration: 0
      delay: 0
      valueMode: 0
      floatValue: 5
      intValue: 0
      boolValue: 0
      vector2Value: {x: 0, y: 0}
      vector3Value: {x: 0, y: 0, z: 0}
      colorValue: {r: 1, g: 1, b: 1, a: 1}
      percentValue: 1
      frequency: 10
      ease: 9
      animAxis: 0
      transformProperty: 0
  - animationType: 0
    renderType: 0
    targetImage: {fileID: 5521805096293915113}
    targetSprite: {fileID: 0}
    notBar: 1
    commands:
    - execution: 0
      effect: 2
      duration: 0
      delay: 0
      valueMode: 0
      floatValue: 5
      intValue: 0
      boolValue: 0
      vector2Value: {x: 0, y: 0}
      vector3Value: {x: 0, y: 0, z: 0}
      colorValue: {r: 1, g: 1, b: 1, a: 1}
      percentValue: 1
      frequency: 10
      ease: 1
      animAxis: 0
      transformProperty: 0
  - animationType: 1
    renderType: 0
    targetImage: {fileID: 6770988671081973103}
    targetSprite: {fileID: 0}
    notBar: 0
    commands:
    - execution: 0
      effect: 2
      duration: 0
      delay: 0
      valueMode: 0
      floatValue: 5
      intValue: 0
      boolValue: 0
      vector2Value: {x: 0, y: 0}
      vector3Value: {x: 0, y: 0, z: 0}
      colorValue: {r: 1, g: 1, b: 1, a: 1}
      percentValue: 1
      frequency: 10
      ease: 1
      animAxis: 0
      transformProperty: 0
  - animationType: 1
    renderType: 0
    targetImage: {fileID: 5521805096293915113}
    targetSprite: {fileID: 0}
    notBar: 1
    commands:
    - execution: 0
      effect: 2
      duration: 0
      delay: 0
      valueMode: 0
      floatValue: 5
      intValue: 0
      boolValue: 0
      vector2Value: {x: 0, y: 0}
      vector3Value: {x: 0, y: 0, z: 0}
      colorValue: {r: 1, g: 1, b: 1, a: 1}
      percentValue: 1
      frequency: 10
      ease: 1
      animAxis: 0
      transformProperty: 0
--- !u!1 &5314912042434630427
GameObject:
  m_ObjectHideFlags: 0
  m_CorrespondingSourceObject: {fileID: 0}
  m_PrefabInstance: {fileID: 0}
  m_PrefabAsset: {fileID: 0}
  serializedVersion: 6
  m_Component:
  - component: {fileID: 3724837388855033690}
  - component: {fileID: 1961286786143055942}
  - component: {fileID: 8615194741368719036}
  m_Layer: 5
  m_Name: HP Background
  m_TagString: Untagged
  m_Icon: {fileID: 0}
  m_NavMeshLayer: 0
  m_StaticEditorFlags: 0
  m_IsActive: 1
--- !u!224 &3724837388855033690
RectTransform:
  m_ObjectHideFlags: 0
  m_CorrespondingSourceObject: {fileID: 0}
  m_PrefabInstance: {fileID: 0}
  m_PrefabAsset: {fileID: 0}
  m_GameObject: {fileID: 5314912042434630427}
  m_LocalRotation: {x: 0, y: 0, z: 0, w: 1}
  m_LocalPosition: {x: 0, y: 0, z: 0}
  m_LocalScale: {x: 1, y: 1, z: 1}
  m_ConstrainProportionsScale: 0
  m_Children:
  - {fileID: 8921535661204560103}
  - {fileID: 8838100020320827818}
  m_Father: {fileID: 1885571637023894311}
  m_LocalEulerAnglesHint: {x: 0, y: 0, z: 0}
  m_AnchorMin: {x: 0, y: 0}
  m_AnchorMax: {x: 1, y: 1}
  m_AnchoredPosition: {x: 0, y: 0}
  m_SizeDelta: {x: 0, y: 0}
  m_Pivot: {x: 0.5, y: 0.5}
--- !u!222 &1961286786143055942
CanvasRenderer:
  m_ObjectHideFlags: 0
  m_CorrespondingSourceObject: {fileID: 0}
  m_PrefabInstance: {fileID: 0}
  m_PrefabAsset: {fileID: 0}
  m_GameObject: {fileID: 5314912042434630427}
  m_CullTransparentMesh: 1
--- !u!114 &8615194741368719036
MonoBehaviour:
  m_ObjectHideFlags: 0
  m_CorrespondingSourceObject: {fileID: 0}
  m_PrefabInstance: {fileID: 0}
  m_PrefabAsset: {fileID: 0}
  m_GameObject: {fileID: 5314912042434630427}
  m_Enabled: 1
  m_EditorHideFlags: 0
  m_Script: {fileID: 11500000, guid: fe87c0e1cc204ed48ad3b37840f39efc, type: 3}
  m_Name: 
  m_EditorClassIdentifier: 
  m_Material: {fileID: 0}
  m_Color: {r: 0.31132078, g: 0.29810435, b: 0.29810435, a: 0.5019608}
  m_RaycastTarget: 1
  m_RaycastPadding: {x: 0, y: 0, z: 0, w: 0}
  m_Maskable: 1
  m_OnCullStateChanged:
    m_PersistentCalls:
      m_Calls: []
  m_Sprite: {fileID: 21300000, guid: 3a79b19cd8e7d0e488c39c168da793bb, type: 3}
  m_Type: 0
  m_PreserveAspect: 0
  m_FillCenter: 1
  m_FillMethod: 0
  m_FillAmount: 1
  m_FillClockwise: 1
  m_FillOrigin: 0
  m_UseSpriteMesh: 0
  m_PixelsPerUnitMultiplier: 1
--- !u!1 &7336873836110770445
GameObject:
  m_ObjectHideFlags: 0
  m_CorrespondingSourceObject: {fileID: 0}
  m_PrefabInstance: {fileID: 0}
  m_PrefabAsset: {fileID: 0}
  serializedVersion: 6
  m_Component:
  - component: {fileID: 8921535661204560103}
  - component: {fileID: 781020369294397613}
  - component: {fileID: 5521805096293915113}
  m_Layer: 5
  m_Name: HP Ghost Bar
  m_TagString: Untagged
  m_Icon: {fileID: 0}
  m_NavMeshLayer: 0
  m_StaticEditorFlags: 0
  m_IsActive: 1
--- !u!224 &8921535661204560103
RectTransform:
  m_ObjectHideFlags: 0
  m_CorrespondingSourceObject: {fileID: 0}
  m_PrefabInstance: {fileID: 0}
  m_PrefabAsset: {fileID: 0}
  m_GameObject: {fileID: 7336873836110770445}
  m_LocalRotation: {x: -0, y: -0, z: -0, w: 1}
  m_LocalPosition: {x: 0, y: 0, z: 0}
  m_LocalScale: {x: 1, y: 1, z: 1}
  m_ConstrainProportionsScale: 0
  m_Children: []
  m_Father: {fileID: 3724837388855033690}
  m_LocalEulerAnglesHint: {x: 0, y: 0, z: 0}
  m_AnchorMin: {x: 0, y: 0}
  m_AnchorMax: {x: 1, y: 1}
  m_AnchoredPosition: {x: 0, y: 0}
  m_SizeDelta: {x: 0, y: 0}
  m_Pivot: {x: 0.5, y: 0.5}
--- !u!222 &781020369294397613
CanvasRenderer:
  m_ObjectHideFlags: 0
  m_CorrespondingSourceObject: {fileID: 0}
  m_PrefabInstance: {fileID: 0}
  m_PrefabAsset: {fileID: 0}
  m_GameObject: {fileID: 7336873836110770445}
  m_CullTransparentMesh: 1
--- !u!114 &5521805096293915113
MonoBehaviour:
  m_ObjectHideFlags: 0
  m_CorrespondingSourceObject: {fileID: 0}
  m_PrefabInstance: {fileID: 0}
  m_PrefabAsset: {fileID: 0}
  m_GameObject: {fileID: 7336873836110770445}
  m_Enabled: 1
  m_EditorHideFlags: 0
  m_Script: {fileID: 11500000, guid: fe87c0e1cc204ed48ad3b37840f39efc, type: 3}
  m_Name: 
  m_EditorClassIdentifier: 
  m_Material: {fileID: 0}
  m_Color: {r: 1, g: 1, b: 1, a: 1}
  m_RaycastTarget: 1
  m_RaycastPadding: {x: 0, y: 0, z: 0, w: 0}
  m_Maskable: 1
  m_OnCullStateChanged:
    m_PersistentCalls:
      m_Calls: []
  m_Sprite: {fileID: 21300000, guid: 3a79b19cd8e7d0e488c39c168da793bb, type: 3}
  m_Type: 3
  m_PreserveAspect: 0
  m_FillCenter: 1
  m_FillMethod: 0
  m_FillAmount: 1
  m_FillClockwise: 1
  m_FillOrigin: 0
  m_UseSpriteMesh: 0
  m_PixelsPerUnitMultiplier: 1
--- !u!1 &8256461427496886968
GameObject:
  m_ObjectHideFlags: 0
  m_CorrespondingSourceObject: {fileID: 0}
  m_PrefabInstance: {fileID: 0}
  m_PrefabAsset: {fileID: 0}
  serializedVersion: 6
  m_Component:
  - component: {fileID: 8838100020320827818}
  - component: {fileID: 4352703624904319668}
  - component: {fileID: 6770988671081973103}
  m_Layer: 5
  m_Name: HP Bar
  m_TagString: Untagged
  m_Icon: {fileID: 0}
  m_NavMeshLayer: 0
  m_StaticEditorFlags: 0
  m_IsActive: 1
--- !u!224 &8838100020320827818
RectTransform:
  m_ObjectHideFlags: 0
  m_CorrespondingSourceObject: {fileID: 0}
  m_PrefabInstance: {fileID: 0}
  m_PrefabAsset: {fileID: 0}
  m_GameObject: {fileID: 8256461427496886968}
  m_LocalRotation: {x: -0, y: -0, z: -0, w: 1}
  m_LocalPosition: {x: 0, y: 0, z: 0}
  m_LocalScale: {x: 1, y: 1, z: 1}
  m_ConstrainProportionsScale: 0
  m_Children: []
  m_Father: {fileID: 3724837388855033690}
  m_LocalEulerAnglesHint: {x: 0, y: 0, z: 0}
  m_AnchorMin: {x: 0, y: 0}
  m_AnchorMax: {x: 1, y: 1}
  m_AnchoredPosition: {x: 0, y: 0}
  m_SizeDelta: {x: 0, y: 0}
  m_Pivot: {x: 0.5, y: 0.5}
--- !u!222 &4352703624904319668
CanvasRenderer:
  m_ObjectHideFlags: 0
  m_CorrespondingSourceObject: {fileID: 0}
  m_PrefabInstance: {fileID: 0}
  m_PrefabAsset: {fileID: 0}
  m_GameObject: {fileID: 8256461427496886968}
  m_CullTransparentMesh: 1
--- !u!114 &6770988671081973103
MonoBehaviour:
  m_ObjectHideFlags: 0
  m_CorrespondingSourceObject: {fileID: 0}
  m_PrefabInstance: {fileID: 0}
  m_PrefabAsset: {fileID: 0}
  m_GameObject: {fileID: 8256461427496886968}
  m_Enabled: 1
  m_EditorHideFlags: 0
  m_Script: {fileID: 11500000, guid: fe87c0e1cc204ed48ad3b37840f39efc, type: 3}
  m_Name: 
  m_EditorClassIdentifier: 
  m_Material: {fileID: 0}
  m_Color: {r: 1, g: 0.199, b: 0.206, a: 1}
  m_RaycastTarget: 1
  m_RaycastPadding: {x: 0, y: 0, z: 0, w: 0}
  m_Maskable: 1
  m_OnCullStateChanged:
    m_PersistentCalls:
      m_Calls: []
  m_Sprite: {fileID: 21300000, guid: 3a79b19cd8e7d0e488c39c168da793bb, type: 3}
  m_Type: 3
  m_PreserveAspect: 0
  m_FillCenter: 1
  m_FillMethod: 0
  m_FillAmount: 1
  m_FillClockwise: 1
  m_FillOrigin: 0
  m_UseSpriteMesh: 0
  m_PixelsPerUnitMultiplier: 1
